{
  "breadcrumb": {
    "separator": {
      "color": {
        "$value": {
          "default": "{color.neutral.200}",
          "dark": "{color.neutral.700}"
        },
        "$type": "color",
        "$description": "Used for the breadcrumb level separator."
      }
    }
  }
}
